{
  "deploymentId" : "68336742-aa33-4598-9c55-d51ab5d6488c",
  "resourceMetadata" : {
    "arn" : "arn:aws:proton:us-east-1:858487653465:service/E2E-tf-service/pipeline",
    "templateArn" : "arn:aws:proton:us-east-1:858487653465:service-template/multiple-file-tf-service",
    "templateMajorVersion" : "1",
    "templateMinorVersion" : "0"
  }
}