{
  "pipeline" : {
    "inputs" : {
      "my_sample_pipeline_optional_input" : "abc",
      "my_sample_pipeline_required_input" : "123"
    }
  },
  "service" : {
    "name" : "E2E-tf-service",
    "repository_connection_arn" : "arn:aws:codestar-connections:us-east-1:858487653465:connection/d9bd5f7f-08eb-42d1-8f1e-f4c68e96865a",
    "repository_id" : "mshelia/terraform-integ-test-repo",
    "branch_name" : "main"
  },
  "service_instances" : [ {
    "name" : "my-instance",
    "inputs" : {
      "my_sample_service_instance_optional_input" : "def",
      "my_sample_service_instance_required_input" : "456"
    },
    "outputs" : { },
    "environment" : {
      "account_id" : "858487653465",
      "name" : "E2E-tf-env",
      "outputs" : { }
    }
  }, {
    "name" : "my-other-instance",
    "inputs" : {
      "my_sample_service_instance_optional_input" : "hello world",
      "my_sample_service_instance_required_input" : "789"
    },
    "outputs" : { },
    "environment" : {
      "account_id" : "858487653465",
      "name" : "E2E-tf-env",
      "outputs" : { }
    }
  } ],
  "//" : "This file is managed by AWS Proton. Any changes made directly to this file will be overwritten the next time AWS Proton performs an update.\n\nTo manage this resource, see AWS Proton Resource: arn:aws:proton:us-east-1:858487653465:service/E2E-tf-service/pipeline\n\nIf the resource is no longer is accessible within AWS Proton, it may have been deleted and may require manual cleanup."
}